<?xml version="1.0" encoding="utf-8"?>
<!-- Generator: Adobe Illustrator 22.0.0, SVG Export Plug-In . SVG Version: 6.00 Build 0)  -->
<svg version="1.1" xmlns="http://www.w3.org/2000/svg"  x="0px" y="0px"
	 viewBox="0 0 545.3 373" style="enable-background:new 0 0 545.3 373;" xml:space="preserve">
<style type="text/css">
	.st0{fill:#CCCCCC;}
	.st1{fill:#959595;}
	.st2{opacity:0.15;fill:#231F20;enable-background:new    ;}
	.st3{fill:#FCAD3A;}
	.st4{fill:#FFFFFF;}
	.st5{fill:#E08207;}
</style>
<g id="plug">
	<title>recharge-battery</title>
	<path class="st0" d="M214.7,90c-2.1,0-3.7,1.7-3.7,3.7v12.2c0,2.1,1.7,3.7,3.7,3.7h12.9V90H214.7z"/>
	<path class="st1" d="M234.6,121.6c-4.4,0-8-3.6-8-8V86c0-4.4,3.6-8,8-8h25.6c4.4,0,8,3.6,8,8v27.6c0,4.4-3.6,8-8,8H234.6z"/>
	<path class="st2" d="M234.6,88.3h25.6c4.4,0,8,3.6,8,8V86c0-4.4-3.6-8-8-8h-25.6c-4.4,0-8,3.6-8,8v10.3
		C226.6,91.9,230.2,88.3,234.6,88.3z"/>
	<rect x="266.7" y="91.6" class="st1" width="56.2" height="16.2"/>
	<rect x="320.1" y="307.9" class="st1" width="131.9" height="16.2"/>
	<rect x="317.8" y="91.6" class="st1" width="16.2" height="232.5"/>
</g>
<g id="power">
	<path class="st3" d="M533.8,373H417.1c-6.3,0-11.5-5.1-11.5-11.4V133.1c0-6.3,5.1-11.5,11.5-11.5h116.7c6.3,0,11.5,5.1,11.5,11.5
		v228.5C545.3,367.9,540.2,373,533.8,373C533.8,373,533.8,373,533.8,373L533.8,373z"/>
	<path class="st4" d="M453.7,329c-0.6,0-1.2-0.2-1.8-0.5c-1.5-0.9-2.1-2.6-1.6-4.3l16.9-46.3l-19.3-5.5c-1.9-0.5-3-2.5-2.4-4.4
		c0.1-0.5,0.4-0.9,0.7-1.3l43-51c1.1-1.3,2.9-1.6,4.4-0.8c1.5,0.8,2.2,2.5,1.7,4.1l-11.8,41.2l19.5,5.5c1.1,0.4,2.1,1.3,2.4,2.4
		c0.3,1.2,0.1,2.4-0.7,3.3l-48.2,56.3C455.8,328.6,454.8,329.1,453.7,329L453.7,329z M455.2,267.2l17.7,5c1,0.3,1.7,0.9,2.2,1.8
		c0.4,0.9,0.5,1.9,0.2,2.8l-11.4,31.5l31.9-37.3l-17.6-5c-0.9-0.3-1.7-0.9-2.2-1.7c-0.4-0.8-0.6-1.8-0.3-2.7l8.3-28.6L455.2,267.2z"
		/>
	<path class="st5" d="M416.6,121.6h117.7c6.1,0,11,4.9,11,11v19c0,6.1-4.9,11-11,11H416.6c-6.1,0-11-4.9-11-11v-19
		C405.6,126.5,410.5,121.6,416.6,121.6z"/>
</g>
<g id="battery">
	<path id="outer-border" class="st1" d="M162.4,21.6h-31.5V0H60v21.7H30c-16.6,0-30,13.4-30,30c0,0,0,0,0,0v288.9
		c0,16.6,13.4,30,30,30h132.4c16.6,0,30-13.4,30-30V51.6C192.4,35.1,178.9,21.6,162.4,21.6z M175.7,340.5c0,7.4-6,13.3-13.3,13.3H30
		c-7.4,0-13.3-6-13.3-13.3V51.6c0-7.4,6-13.3,13.3-13.3h132.4c7.4,0,13.3,6,13.3,13.3V340.5z"/>
	<rect id="bar" x="29.4" y="337.2" class="st3" width="133.4" height="3.2"/>
</g>
</svg>
