<?xml version="1.0" encoding="iso-8859-1"?>
<!-- Generator: Adobe Illustrator 19.0.0, SVG Export Plug-In . SVG Version: 6.00 Build 0)  -->
<svg version="1.1" id="Capa_1" xmlns="http://www.w3.org/2000/svg" xmlns:xlink="http://www.w3.org/1999/xlink" x="0px" y="0px"
	 viewBox="0 0 463 463" style="enable-background:new 0 0 463 463;" xml:space="preserve">
  <style type="text/css">
	.st0{fill:#6A6A6A;}
  </style>
<path class="st0" d="M398.901,325.619l-76.69-19.173c-0.738-6.717-4.331-13.04-10.299-17.019l-6.636-4.423
	C328.395,260.158,343,223.865,343,183.5c0-7.383-0.496-14.668-1.459-21.837C342.58,153.514,351,85.492,351,23.5
	c0-3.253-2.098-6.136-5.193-7.137C343.74,15.695,294.458,0,231.5,0c-14.523,0-50.229,2.388-74.907,24h-2.794
	c-13.158,0-25.843,5.521-34.804,15.146c-8.933,9.595-13.519,22.592-12.583,35.658c2.317,32.335,7.716,71.622,13.806,100.588
	c-0.129,2.689-0.217,5.389-0.217,8.107c0,40.365,14.605,76.658,37.724,101.503l-6.636,4.423c-5.968,3.979-9.561,10.303-10.299,17.02
	l-76.69,19.173C35.779,332.699,16,358.032,16,387.224V439.5c0,12.958,10.542,23.5,23.5,23.5h384c12.958,0,23.5-10.542,23.5-23.5
	v-52.276C447,358.032,427.221,332.699,398.901,325.619z M342.158,370.104l-24.477,6.119c-2.207,0.552-4.044,2.075-4.995,4.143
	c-0.951,2.066-0.912,4.453,0.106,6.488l14.496,28.991L314.467,448H262.18l-6.896-47.105c4.737-4.302,7.716-10.507,7.716-17.395
	v-4.744c3.63,2.957,7.399,6.299,11.232,10.082c1.415,1.396,3.312,2.162,5.268,2.162c0.4,0,0.802-0.032,1.203-0.097
	c3.788-0.615,5.043-3.116,6.495-6.013l31.88-63.766l9.785,2.446L342.158,370.104z M148.548,448l-12.835-32.155l14.495-28.99
	c1.018-2.035,1.057-4.422,0.106-6.488c-0.951-2.067-2.788-3.591-4.995-4.143l-24.477-6.119l13.295-46.533l9.786-2.446l31.88,63.765
	c1.452,2.896,2.707,5.397,6.495,6.013c0.401,0.064,0.803,0.097,1.203,0.097c1.956,0,3.853-0.766,5.268-2.162
	c3.833-3.783,7.602-7.125,11.232-10.082v4.744c0,6.888,2.979,13.093,7.715,17.395L200.8,448H148.548z M231.5,340.893l-25.461-25.461
	c8.181,2.331,16.704,3.568,25.461,3.568s17.281-1.237,25.461-3.568L231.5,340.893z M231.498,359.488
	c3.033,1.208,8.951,3.839,16.502,8.529V383.5c0,4.687-3.813,8.5-8.5,8.5h-16c-4.687,0-8.5-3.813-8.5-8.5v-15.484
	C222.556,363.323,228.474,360.693,231.498,359.488z M221.987,406.946c0.501,0.032,1.004,0.054,1.513,0.054h16
	c0.508,0,1.01-0.022,1.51-0.054L247.02,448h-31.059L221.987,406.946z M306.483,312.773c-15.983,31.986-24.677,49.376-29.199,58.413
	c-12.864-11.311-24.587-18.251-32.629-22.235l51.8-51.801l7.135,4.757C307.149,304.28,308.393,308.951,306.483,312.773z
	 M255,173.217c13.507-3.256,27.493-3.256,41,0v24.356c-13.508,3.256-27.492,3.256-41,0V173.217z M305.706,160.332
	c-19.761-6.08-40.65-6.08-60.411,0C242.147,161.3,240,164.207,240,167.5v2.097c-2.638-1.027-5.503-1.597-8.5-1.597
	s-5.862,0.57-8.5,1.597V167.5c0-3.293-2.147-6.2-5.294-7.168c-19.761-6.08-40.65-6.08-60.411,0C154.147,161.3,152,164.207,152,167.5
	v0.5h-16.205c2.118-20.715,8.486-40.156,18.768-57.063c80.812-0.275,138.571,6.682,163.546,19.68
	c4.706,11.936,7.738,24.454,9.083,37.384H311v-0.5C311,164.207,308.853,161.3,305.706,160.332z M167,173.217
	c13.507-3.256,27.493-3.256,41,0v24.356c-13.508,3.256-27.492,3.256-41,0V173.217z M121.374,73.732
	c-0.649-9.058,2.405-17.711,8.6-24.365C136.197,42.682,144.658,39,153.799,39h5.701c1.926,0,3.778-0.741,5.172-2.069
	C185.456,17.137,218.331,15,231.5,15c49.03,0,90.336,10.174,104.477,14.108c-0.267,33.218-2.83,67.634-5.214,92.912
	c-0.651-1.318-1.656-2.43-2.933-3.173c-18.64-10.838-64.556-23.608-177.466-22.891c-2.517,0.017-4.858,1.294-6.233,3.401
	c-6.779,10.389-12.175,21.687-16.138,33.635C125.067,113.178,122.703,92.294,121.374,73.732z M135.008,183H152v20.29
	c0,3.293,2.147,6.2,5.295,7.169c9.88,3.039,20.042,4.559,30.205,4.559s20.325-1.52,30.205-4.559
	c3.147-0.969,5.295-3.876,5.295-7.169V191.5c0-4.687,3.813-8.5,8.5-8.5s8.5,3.813,8.5,8.5v11.79c0,3.293,2.147,6.2,5.295,7.169
	c9.88,3.039,20.042,4.559,30.205,4.559s20.325-1.52,30.205-4.559c3.147-0.969,5.295-3.876,5.295-7.169V183h16.994
	c0.001,0.167,0.006,0.333,0.006,0.5c0,66.444-43.29,120.5-96.5,120.5S135,249.944,135,183.5
	C135,183.333,135.007,183.167,135.008,183z M159.409,301.907l7.136-4.757l51.8,51.801c-8.042,3.984-19.765,10.925-32.629,22.235
	c-4.522-9.037-13.216-26.427-29.199-58.413C154.607,308.951,155.851,304.28,159.409,301.907z M31,439.5v-52.276
	c0-22.296,15.107-41.645,36.737-47.052l49.6-12.4l-13.048,45.668c-0.559,1.954-0.3,4.052,0.717,5.812s2.704,3.032,4.676,3.525
	l22.929,5.732l-11.818,23.637c-0.958,1.915-1.051,4.147-0.258,6.135L132.397,448H39.5C34.813,448,31,444.187,31,439.5z M432,439.5
	c0,4.687-3.813,8.5-8.5,8.5h-92.884l11.851-29.723c0.792-1.987,0.698-4.218-0.259-6.132l-11.818-23.637l22.929-5.732
	c1.972-0.493,3.659-1.766,4.676-3.525s1.275-3.857,0.717-5.812l-13.048-45.668l49.6,12.4c21.63,5.407,36.737,24.756,36.737,47.052
	V439.5z"/>
</svg>
