<?xml version="1.0" encoding="utf-8"?>
<!-- Generator: Adobe Illustrator 22.0.1, SVG Export Plug-In . SVG Version: 6.00 Build 0)  -->
<svg version="1.1" id="Layer_1" xmlns="http://www.w3.org/2000/svg" xmlns:xlink="http://www.w3.org/1999/xlink" x="0px" y="0px"
	 viewBox="0 0 100 100" style="enable-background:new 0 0 100 100;" xml:space="preserve">
<path d="M50,10C22.4,10,0,32.4,0,60s22.4,50,50,50s50-22.4,50-50S77.6,10,50,10z M72.3,52.9L48.7,76.5c-1.7,1.7-4.5,1.7-6.2,0
	L30.8,64.8c-2.2-2.2-2.2-5.7,0-7.9l0.1-0.1c2.2-2.2,5.7-2.2,7.9,0l6.8,6.8l18.7-18.7c2.2-2.2,5.7-2.2,7.9,0l0.1,0.1
	C74.5,47.2,74.5,50.7,72.3,52.9z"/>
</svg>
