<?xml version="1.0" encoding="utf-8"?>
<!-- Generator: Adobe Illustrator 22.0.1, SVG Export Plug-In . SVG Version: 6.00 Build 0)  -->
<svg version="1.1" id="Layer_1" xmlns="http://www.w3.org/2000/svg" xmlns:xlink="http://www.w3.org/1999/xlink" x="0px" y="0px"
	 viewBox="0 0 100 100" style="enable-background:new 0 0 100 100;" xml:space="preserve">
<g>
	<g>
		<path d="M50,0C22.4,0,0,22.4,0,50c0,27.6,22.4,50,50,50c27.6,0,50-22.4,50-50C100,22.4,77.6,0,50,0z M50,92.2
			C26.7,92.2,7.8,73.3,7.8,50C7.8,26.7,26.7,7.8,50,7.8c23.3,0,42.2,18.9,42.2,42.2C92.2,73.3,73.3,92.2,50,92.2z"/>
	</g>
</g>
<g>
	<g>
		<path d="M50,25.2c-2.2,0-3.9,1.7-3.9,3.9v25.2c0,2.2,1.7,3.9,3.9,3.9c2.2,0,3.9-1.7,3.9-3.9V29.1C53.9,26.9,52.2,25.2,50,25.2z"/>
	</g>
</g>
<g>
	<g>
		<circle cx="50" cy="68.2" r="5.3"/>
	</g>
</g>
</svg>
