<?xml version="1.0" encoding="utf-8"?>
<!-- Generator: Adobe Illustrator 21.1.0, SVG Export Plug-In . SVG Version: 6.00 Build 0)  -->
<svg version="1.1" id="Layer_1" xmlns="http://www.w3.org/2000/svg"  x="0px" y="0px"
	 viewBox="0 0 100 100" style="enable-background:new 0 0 100 100;" xml:space="preserve">
<title>dashboard</title>
<path d="M0,6.4v87.2c0,3.5,2.9,6.4,6.4,6.4h87.2c3.5,0,6.4-2.9,6.4-6.4V6.4c0-3.5-2.9-6.4-6.4-6.4H6.4C2.9,0,0,2.9,0,6.4z
	 M88.3,91.5H11.8c-1.7,0-3.1-1.4-3.1-3.1l0,0V11.8c0-1.7,1.4-3.1,3.1-3.1l0,0h76.5c1.7,0,3.1,1.4,3.1,3.1c0,0,0,0,0,0v76.5
	C91.4,90.1,90,91.5,88.3,91.5C88.3,91.5,88.3,91.5,88.3,91.5z"/>
<path d="M24.9,17h49.7c3.6,0,6.5,2.9,6.5,6.5v3.3c0,3.6-2.9,6.5-6.5,6.5H24.9c-3.6,0-6.5-2.9-6.5-6.5v-3.3
	C18.5,19.9,21.3,17,24.9,17z"/>
<path d="M49,40.5h25.6c3.6,0,6.5,2.9,6.5,6.5v27.4c0,3.6-2.9,6.5-6.5,6.5H49c-3.6,0-6.5-2.9-6.5-6.5V47C42.5,43.4,45.4,40.5,49,40.5
	z"/>
<path d="M24.9,40.5h3.9c3.6,0,6.5,2.9,6.5,6.5v27.4c0,3.6-2.9,6.5-6.5,6.5h-3.9c-3.6,0-6.5-2.9-6.5-6.5V47
	C18.5,43.4,21.3,40.5,24.9,40.5z"/>
</svg>
