<?xml version="1.0" encoding="utf-8"?>
<!-- Generator: Adobe Illustrator 22.0.1, SVG Export Plug-In . SVG Version: 6.00 Build 0)  -->
<svg version="1.1" id="Layer_1" xmlns="http://www.w3.org/2000/svg" xmlns:xlink="http://www.w3.org/1999/xlink" x="0px" y="0px"
	 viewBox="0 0 100 100" style="enable-background:new 0 0 100 100;" xml:space="preserve">
<path d="M0,60c0,27.6,22.4,50,50,50s50-22.4,50-50S77.6,10,50,10S0,32.4,0,60z M50,101.1C27.4,101.1,8.9,82.6,8.9,60
	c0-9.7,3.4-18.6,9.1-25.7L75.7,92C68.6,97.7,59.7,101.1,50,101.1z M91.1,60c0,9.7-3.4,18.6-9.1,25.7L24.3,28c7-5.7,16-9.1,25.7-9.1
	C72.6,18.9,91.1,37.4,91.1,60z"/>
</svg>
