<?xml version="1.0" encoding="utf-8"?>
<!-- Generator: Adobe Illustrator 22.0.1, SVG Export Plug-In . SVG Version: 6.00 Build 0)  -->
<svg version="1.1" id="Layer_1" xmlns="http://www.w3.org/2000/svg" xmlns:xlink="http://www.w3.org/1999/xlink" x="0px" y="0px"
	 viewBox="0 0 100 100" style="enable-background:new 0 0 100 100;" xml:space="preserve">
<style type="text/css">
	.st0{stroke:#000000;stroke-miterlimit:10;}
</style>
<g>
	<path class="st0" d="M90.5,47c-0.9-16.7-13.4-30.7-30.4-34.4c-1.2-0.3-2.3,0.4-2.6,1.6c-0.3,1.1,0.5,2.2,1.6,2.5
		c15.1,3.3,26.2,15.7,27,30.6c0.1,1.1,1.1,2,2.3,2c1.2-0.1,2.1-0.9,2.1-2l0,0V47z"/>
	<path class="st0" d="M38.7,13.3C20.7,18.5,8,35.2,8,54.3c0,4.2,0.6,8.3,1.8,12.2c0.4,1.3,1.7,2,2.9,1.6c1.3-0.4,2-1.7,1.6-2.9
		c-1-3.5-1.6-7.1-1.6-10.8c0-17,11.3-31.8,27.3-36.5c1.3-0.4,1.6-1.7,1.2-2.9C40.9,13.6,40,12.9,38.7,13.3L38.7,13.3L38.7,13.3z"/>
	<path class="st0" d="M20.8,84.8c7.9,7.8,18.6,12.3,30,12.3c12.3,0,23.7-5.2,31.7-14.1c0.9-1,0.8-2.5-0.2-3.3
		c-1-0.9-2.5-0.8-3.3,0.2c-7.2,7.9-17.3,12.5-28.2,12.5c-10.1,0-19.6-4-26.6-10.9c-0.9-0.9-2.4-0.9-3.3,0
		C19.8,82.4,19.8,83.9,20.8,84.8L20.8,84.8L20.8,84.8z"/>
	<path class="st0" d="M49.3,27.8c6.9,0,12.5-5.6,12.5-12.5S56.2,2.9,49.3,2.9c-6.9,0-12.5,5.6-12.5,12.5S42.4,27.8,49.3,27.8
		L49.3,27.8L49.3,27.8z M49.3,23.1c-4.3,0-7.7-3.5-7.7-7.7c0-4.3,3.5-7.7,7.7-7.7c4.3,0,7.7,3.5,7.7,7.7S53.5,23.1,49.3,23.1
		L49.3,23.1L49.3,23.1z"/>
	<path class="st0" d="M14.7,88.4c6.9,0,12.5-5.6,12.5-12.5s-5.6-12.5-12.5-12.5S2.2,69,2.2,75.9S7.8,88.4,14.7,88.4L14.7,88.4
		L14.7,88.4z M14.7,83.6c-4.3,0-7.7-3.5-7.7-7.7s3.5-7.7,7.7-7.7s7.7,3.5,7.7,7.7S18.9,83.6,14.7,83.6L14.7,83.6L14.7,83.6z"/>
	<path class="st0" d="M86.8,85.5c6.9,0,12.5-5.6,12.5-12.5c0-6.9-5.6-12.5-12.5-12.5S74.3,66.2,74.3,73
		C74.3,79.9,79.9,85.5,86.8,85.5L86.8,85.5L86.8,85.5z M86.8,80.8c-4.3,0-7.7-3.5-7.7-7.7c0-4.3,3.5-7.7,7.7-7.7
		c4.3,0,7.7,3.5,7.7,7.7C94.5,77.3,91,80.8,86.8,80.8L86.8,80.8L86.8,80.8z"/>
	<circle cx="86.8" cy="73.2" r="5.9"/>
</g>
</svg>
