<?xml version="1.0" encoding="utf-8"?>
<!-- Generator: Adobe Illustrator 22.0.1, SVG Export Plug-In . SVG Version: 6.00 Build 0)  -->
<svg version="1.1" id="Layer_1" xmlns="http://www.w3.org/2000/svg" xmlns:xlink="http://www.w3.org/1999/xlink" x="0px" y="0px"
	 viewBox="0 0 100 100" style="enable-background:new 0 0 100 100;" xml:space="preserve">
<style type="text/css">
	.st0{enable-background:new    ;}
	.st1{fill:#FFFFFF;}
</style>
<circle cx="50" cy="60" r="50"/>
<g class="st0">
	<path class="st1" d="M55.5,66.7h-11l-1.7-31.5h14.4L55.5,66.7z M43,78.4c0-2,0.6-3.6,1.8-4.7C46,72.6,47.7,72,50,72s4,0.6,5.1,1.7
		c1.2,1.1,1.7,2.7,1.7,4.7s-0.6,3.5-1.8,4.7c-1.2,1.1-2.9,1.7-5.1,1.7c-2.2,0-3.9-0.6-5.2-1.7C43.6,81.9,43,80.4,43,78.4z"/>
</g>
</svg>
