<?xml version="1.0" encoding="utf-8"?>
<!-- Generator: Adobe Illustrator 22.0.1, SVG Export Plug-In . SVG Version: 6.00 Build 0)  -->
<svg version="1.1" id="Layer_1" xmlns="http://www.w3.org/2000/svg" xmlns:xlink="http://www.w3.org/1999/xlink" x="0px" y="0px"
	 viewBox="0 0 100 100" style="enable-background:new 0 0 100 100;" xml:space="preserve">
<style type="text/css">
	.st0{fill:#030104;}
</style>
<title>help</title>
<path class="st0" d="M49.3,10C21.7,10.4-0.4,33.1,0,60.7s23.1,49.7,50.7,49.3c27.6-0.4,49.7-23.1,49.3-50.7
	C99.6,31.7,76.9,9.6,49.3,10L49.3,10z M49.3,90.4H49c-4,0-7.3-3.3-7.3-7.3s3.3-7.3,7.3-7.3h0.2c4,0,7.3,3.3,7.3,7.3
	S53.3,90.4,49.3,90.4L49.3,90.4L49.3,90.4z M67.2,54.9c-1.8,2-3.8,3.8-6,5.4l-3,2.1c-1.4,0.9-2.4,2.2-3,3.7c-0.4,1-0.6,2-0.6,3v0.5
	H42.9v-1c-0.4-2.9,0.3-5.9,1.9-8.4c2.6-2.7,5.5-5,8.7-7c0.8-0.6,1.5-1.3,2-2.1c1-1.2,1.7-2.7,1.8-4.3c0-1.8-0.5-3.5-1.5-5
	c-1.5-1.6-3.6-2.3-5.7-2c-2.3-0.2-4.5,0.8-5.8,2.7c-1.1,1.7-1.8,3.7-1.8,5.8v0.5h-12v-0.5c-0.2-6.2,2.7-12,7.8-15.5
	c3.4-2.1,7.3-3.1,11.3-3c5.2-0.2,10.3,1.3,14.6,4.2c3.9,2.9,6.1,7.6,5.9,12.4C69.9,49.5,68.9,52.5,67.2,54.9L67.2,54.9z"/>
</svg>
