<?xml version="1.0" encoding="utf-8"?>
<!-- Generator: Adobe Illustrator 22.0.1, SVG Export Plug-In . SVG Version: 6.00 Build 0)  -->
<svg version="1.1" id="Layer_1" xmlns="http://www.w3.org/2000/svg" xmlns:xlink="http://www.w3.org/1999/xlink" x="0px" y="0px"
	 viewBox="0 0 100 100" style="enable-background:new 0 0 100 100;" xml:space="preserve">
<path d="M50,84.5c11.7-0.1,23.4-1.1,35-3c6.2-1.1,8.4-4.3,8.4-7.1c0-2.9-1.5-5.6-3.8-7.2c-2.3-2.3-5.8-2.7-6.4-17.8
	C81.3,13.2,64.4,10.7,60.5,9.1C58.2,8.4,56.1,7,54.7,5c-0.6-2-2.6-3.3-4.7-3c-2.1-0.3-4.1,1-4.7,3c-1.4,2-3.5,3.4-5.8,4.1
	c-3.9,1.6-20.8,4.1-22.7,40.2c-0.6,15.1-4.1,15.5-6.4,17.8c-2.4,1.7-3.9,4.5-3.8,7.5c0,2.6,2.1,6,8.4,7.1
	C26.6,83.6,38.3,84.5,50,84.5z"/>
<path d="M50,98.1c4.8-0.1,9.2-2.5,11.9-6.5c0.6-0.7,0.6-1.7-0.1-2.3c-0.3-0.3-0.7-0.4-1.2-0.4c-1.6,0-6,0.3-10.6,0.3
	s-8.9-0.4-10.6-0.4c-0.9,0-1.6,0.6-1.7,1.5c0,0.4,0.1,0.8,0.4,1.2C40.8,95.5,45.2,98,50,98.1z"/>
</svg>
