<?xml version="1.0" encoding="utf-8"?>
<!-- Generator: Adobe Illustrator 22.0.0, SVG Export Plug-In . SVG Version: 6.00 Build 0)  -->
<svg version="1.1" id="Layer_1" xmlns="http://www.w3.org/2000/svg" xmlns:xlink="http://www.w3.org/1999/xlink" x="0px" y="0px"
	 viewBox="0 0 100 100" style="enable-background:new 0 0 100 100;" xml:space="preserve">
<style type="text/css">
	.st0{fill:#231F20;}
</style>
<path class="st0" d="M96.8,84L74.4,63.7c-1.9-1.7-2.4-4.5-1.2-6.7c3.6-6.8,5.2-14.8,4.1-23.2C75.3,17,62.1,3.3,45.4,0.5
	C18.9-3.8-3.8,18.8,0.5,45.4C3.2,62,17,75.2,33.7,77.4c8.4,1.1,16.4-0.5,23.1-4.1c2.2-1.2,5-0.7,6.7,1.2l21,22.7
	c3.7,4,10.2,3.7,13.7-0.7C101.2,92.7,100.3,87.2,96.8,84z M10,38.9C10,22.9,22.9,10,38.9,10s28.8,12.9,28.8,28.8
	c0,15.9-12.9,28.8-28.8,28.8S10,54.8,10,38.9z"/>
</svg>
