<?xml version="1.0" encoding="utf-8"?>
<!-- Generator: Adobe Illustrator 21.1.0, SVG Export Plug-In . SVG Version: 6.00 Build 0)  -->
<svg version="1.1" id="Layer_1" xmlns="http://www.w3.org/2000/svg"  x="0px" y="0px"
	 viewBox="0 0 100 100" style="enable-background:new 0 0 100 100;" xml:space="preserve">
<title>settings</title>
<path d="M100,53.8v-7.6c0-2.5-2-4.5-4.5-4.5h-1.2c-2.9,0-5.4-1.8-6.3-4.5c-0.6-1.6-1.2-3.2-2-4.8c-1.3-2.6-0.8-5.7,1.2-7.8l0.9-0.9
	c1.7-1.8,1.7-4.6,0-6.4L82.6,12c-1.8-1.7-4.6-1.7-6.4,0l-1,1c-2,2-5.2,2.5-7.7,1.2c-1.5-0.7-3-1.4-4.5-2c-2.7-0.9-4.5-3.5-4.5-6.3
	V4.5C58.5,2,56.5,0,54,0h-7.8c-2.5,0-4.5,2-4.5,4.5V6c0,2.9-1.8,5.4-4.5,6.3c-1.6,0.5-3.1,1.2-4.5,1.9c-2.6,1.3-5.7,0.8-7.8-1.2
	l-1-1c-1.8-1.7-4.6-1.7-6.4,0L12,17.4c-1.7,1.8-1.7,4.6,0,6.4l1.1,1.1c2,2,2.5,5.2,1.2,7.7c-0.7,1.5-1.3,3-1.9,4.5
	c-0.9,2.7-3.5,4.5-6.3,4.5H4.5c-2.5,0-4.5,2-4.5,4.5v7.6c0,2.5,2,4.5,4.5,4.5h1.6c2.9,0,5.4,1.8,6.3,4.5c0.5,1.6,1.1,3.1,1.9,4.5
	c1.3,2.6,0.8,5.7-1.2,7.7L12,76.4c-1.7,1.8-1.7,4.6,0,6.4l5.4,5.4c1.8,1.7,4.6,1.7,6.4,0l1-1c2.1-2,5.2-2.5,7.8-1.2
	c1.5,0.7,3,1.4,4.5,1.9c2.7,0.9,4.5,3.5,4.5,6.3v1.4c0,2.5,2,4.5,4.5,4.5h7.6c2.5,0,4.5-2,4.5-4.5v-1.4c0-2.9,1.8-5.4,4.5-6.3
	c1.6-0.6,3.1-1.2,4.5-2c2.6-1.3,5.7-0.8,7.7,1.2l1,1c1.8,1.7,4.6,1.7,6.4,0l5.4-5.4c1.7-1.8,1.7-4.6,0-6.4L87,75.4
	c-2.1-2-2.5-5.2-1.2-7.8c0.8-1.5,1.4-3.1,2-4.8c0.9-2.7,3.5-4.5,6.3-4.5h1.3C97.9,58.3,100,56.3,100,53.8z M56.1,75.2
	C42.2,78.4,28.2,69.7,25,55.8c-0.9-3.8-0.9-7.9,0-11.7c2.2-9.6,9.7-17.1,19.3-19.3c13.9-3.2,27.9,5.4,31.1,19.4
	c0.9,3.8,0.9,7.9,0,11.7C73.2,65.5,65.7,73,56.1,75.2z"/>
</svg>
