<?xml version="1.0" encoding="UTF-8" standalone="no"?>
<!-- Generator: Adobe Illustrator 16.0.0, SVG Export Plug-In . SVG Version: 6.00 Build 0)  -->

<svg
   xmlns:dc="http://purl.org/dc/elements/1.1/"
   xmlns:cc="http://creativecommons.org/ns#"
   xmlns:rdf="http://www.w3.org/1999/02/22-rdf-syntax-ns#"
   xmlns:svg="http://www.w3.org/2000/svg"
   xmlns="http://www.w3.org/2000/svg"
   xmlns:sodipodi="http://sodipodi.sourceforge.net/DTD/sodipodi-0.dtd"
   xmlns:inkscape="http://www.inkscape.org/namespaces/inkscape"
   version="1.1"
   id="Capa_1"
   x="0px"
   y="0px"
   width="100"
   height="100"
   viewBox="0 0 100 100"
   xml:space="preserve"
   sodipodi:docname="up-multi-line-arrow-in-a-circle.svg"
   inkscape:version="0.92.2 (5c3e80d, 2017-08-06)"><metadata
     id="metadata53"><rdf:RDF><cc:Work
         rdf:about=""><dc:format>image/svg+xml</dc:format><dc:type
           rdf:resource="http://purl.org/dc/dcmitype/StillImage" /><dc:title></dc:title></cc:Work></rdf:RDF></metadata><defs
     id="defs51" /><sodipodi:namedview
     pagecolor="#ffffff"
     bordercolor="#666666"
     borderopacity="1"
     objecttolerance="10"
     gridtolerance="10"
     guidetolerance="10"
     inkscape:pageopacity="0"
     inkscape:pageshadow="2"
     inkscape:window-width="1600"
     inkscape:window-height="837"
     id="namedview49"
     showgrid="false"
     inkscape:zoom="2.757394"
     inkscape:cx="109.55932"
     inkscape:cy="28.20339"
     inkscape:window-x="-8"
     inkscape:window-y="-8"
     inkscape:window-maximized="1"
     inkscape:current-layer="g16" /><g
     id="g16"
     transform="translate(0,-412)"><g
       transform="matrix(0.390625,0,0,0.390625,-50,362)"
       id="g14"><rect
         x="223.96899"
         y="368"
         width="64"
         height="16"
         id="rect4" /><rect
         x="223.96899"
         y="336"
         width="64"
         height="16"
         id="rect6" /><rect
         x="223.96899"
         y="304"
         width="64"
         height="16"
         id="rect8" /><polygon
         points="287.969,256 287.969,192 320,192 256,128 192,192 223.969,192 223.969,256 "
         id="polygon10" /><rect
         x="223.96899"
         y="272"
         width="64"
         height="16"
         id="rect12" /></g></g><g
     id="g18"
     transform="translate(0,-412)" /><g
     id="g20"
     transform="translate(0,-412)" /><g
     id="g22"
     transform="translate(0,-412)" /><g
     id="g24"
     transform="translate(0,-412)" /><g
     id="g26"
     transform="translate(0,-412)" /><g
     id="g28"
     transform="translate(0,-412)" /><g
     id="g30"
     transform="translate(0,-412)" /><g
     id="g32"
     transform="translate(0,-412)" /><g
     id="g34"
     transform="translate(0,-412)" /><g
     id="g36"
     transform="translate(0,-412)" /><g
     id="g38"
     transform="translate(0,-412)" /><g
     id="g40"
     transform="translate(0,-412)" /><g
     id="g42"
     transform="translate(0,-412)" /><g
     id="g44"
     transform="translate(0,-412)" /><g
     id="g46"
     transform="translate(0,-412)" /></svg>