<?xml version="1.0" encoding="utf-8"?>
<!-- Generator: Adobe Illustrator 22.0.1, SVG Export Plug-In . SVG Version: 6.00 Build 0)  -->
<svg version="1.1" id="Layer_1" xmlns="http://www.w3.org/2000/svg" xmlns:xlink="http://www.w3.org/1999/xlink" x="0px" y="0px"
	 viewBox="0 0 100 100" style="enable-background:new 0 0 100 100;" xml:space="preserve">
<style type="text/css">
	.st0{fill:#010002;}
</style>
<g>
	<g>
		<g>
			<path class="st0" d="M99.3,98.1L55.6,16.3c-1.1-2-3.2-3.3-5.5-3.3l0,0c-2.3,0-4.4,1.3-5.5,3.3L0.7,98c-1,2-1,4.3,0.1,6.2
				c1.1,1.9,3.2,3.1,5.4,3.1h87.4c2.2,0,4.3-1.2,5.4-3.1C100.2,102.4,100.3,100,99.3,98.1z M50.1,94.7c-3.5,0-6.3-2.8-6.3-6.3
				s2.8-6.3,6.3-6.3s6.3,2.8,6.3,6.3S53.6,94.7,50.1,94.7z M56.4,69.7c0,3.5-2.8,6.3-6.3,6.3s-6.3-2.8-6.3-6.3V44.5
				c0-3.5,2.8-6.3,6.3-6.3s6.3,2.8,6.3,6.3V69.7z"/>
		</g>
	</g>
</g>
</svg>
